[
  {
    "title_ro": "Yahari Ore no Seishun Love Comedy wa Machigatteiru. Zoku",
    "title_ja": "やはり俺の青春ラブコメはまちがっている。続",
    "id_mal": "23847",
    "id_hb": "20000",
    "id_anilist": "20698",
    "eps": 13,
    "image": "http://images.com/invalid.png",
    "sources": [
      {
        "name": "TBS",
        "date": "2015-04-02",
        "time": "16:46"
      }
    ]
  }
]
